<?xml version="1.0" standalone="no"?>
<!DOCTYPE svg PUBLIC "-//W3C//DTD SVG 1.1//EN" "http://www.w3.org/Graphics/SVG/1.1/DTD/svg11.dtd">
<svg xmlns="http://www.w3.org/2000/svg">
<metadata>Copyright (C) 2020 by original authors @ fontello.com</metadata>
<defs>
<font id="jiavp_icons" horiz-adv-x="1000" >
<font-face font-family="jiavp_icons" font-weight="400" font-stretch="normal" units-per-em="1000" ascent="850" descent="-150" />
<missing-glyph horiz-adv-x="1000" />
<glyph glyph-name="backward-solid" unicode="&#xe800;" d="M23 302l375-313c40-33 102-5 102 49v625c0 53-62 81-102 48l-375-313c-30-25-30-71 0-96z m500 0l375-313c40-33 102-5 102 49v625c0 53-62 81-102 48l-375-313c-30-25-30-71 0-96z" horiz-adv-x="1000" />

<glyph glyph-name="compress-alt-solid" unicode="&#xe801;" d="M9 15l194 194-64 61c-30 30-9 80 33 80h219c26 0 47-21 47-47v-219c0-41-51-62-80-33l-61 65-194-194c-12-13-32-13-44 0l-50 49c-12 12-12 32 0 44z m857 670l-194-194 64-61c30-29 9-80-33-80h-219c-26 0-46 21-46 47v219c0 41 50 62 79 33l61-65 194 194c12 13 32 13 44 0l50-49c12-12 12-32 0-44z" horiz-adv-x="875" />

<glyph glyph-name="expand-alt-solid" unicode="&#xe802;" d="M415 234l-181-181 65-61c29-29 8-80-33-80h-219c-26 0-47 21-47 47v219c0 42 50 63 80 33l61-64 181 181c12 12 32 12 44 0l49-50c13-12 13-32 0-44z m45 232l181 181-65 61c-29 29-8 80 34 80h218c26 0 47-21 47-47v-219c0-42-50-63-80-33l-61 64-181-181c-12-12-32-12-44 0l-49 50c-13 12-13 32 0 44z" horiz-adv-x="875" />

<glyph glyph-name="fast-backward-solid" unicode="&#xe803;" d="M0-2v704c0 13 11 23 23 23h79c13 0 23-10 23-23v-297l335 306c40 33 103 5 103-48v-258l335 306c40 33 102 5 102-48v-625c0-54-62-82-102-49l-335 304v-255c0-54-63-82-103-49l-335 304v-295c0-13-10-23-23-23h-79c-12 0-23 10-23 23z" horiz-adv-x="1000" />

<glyph glyph-name="fast-forward-solid" unicode="&#xe804;" d="M1000 702v-704c0-13-10-23-23-23h-79c-12 0-23 10-23 23v297l-335-306c-40-33-102-5-102 49v257l-335-306c-41-33-103-5-103 49v625c0 53 62 81 103 48l335-304v256c0 53 62 81 102 48l335-304v295c0 13 11 23 23 23h79c13 0 23-10 23-23z" horiz-adv-x="1000" />

<glyph glyph-name="forward-solid" unicode="&#xe805;" d="M978 398l-375 313c-41 33-103 5-103-48v-625c0-54 62-82 103-49l375 313c29 25 29 71 0 96z m-500 0l-375 313c-41 33-103 5-103-48v-625c0-54 62-82 103-49l375 313c29 25 29 71 0 96z" horiz-adv-x="1000" />

<glyph glyph-name="pause-solid" unicode="&#xe806;" d="M281-86h-187c-52 0-94 42-94 94v688c0 52 42 94 94 94h187c52 0 94-42 94-94v-688c0-52-42-94-94-94z m594 94v688c0 52-42 94-94 94h-187c-52 0-94-42-94-94v-688c0-52 42-94 94-94h187c52 0 94 42 94 94z" horiz-adv-x="875" />

<glyph glyph-name="play-circle-regular" unicode="&#xe807;" d="M726 385l-344 209c-31 17-69-5-69-41v-406c0-36 38-58 69-41l344 197c32 18 32 64 0 82z m258-35c0 268-216 484-484 484s-484-216-484-484 216-484 484-484 484 216 484 484z m-875 0c0 216 175 391 391 391s391-175 391-391-175-391-391-391-391 175-391 391z" horiz-adv-x="1000" />

<glyph glyph-name="play-solid" unicode="&#xe808;" d="M829 431l-688 406c-55 33-141 1-141-81v-812c0-74 80-118 141-81l688 406c61 37 61 126 0 162z" horiz-adv-x="875" />

<glyph glyph-name="volume-down-solid" unicode="&#xe809;" d="M420 709l-174-173h-199c-26 0-47-21-47-47v-282c0-25 21-46 47-46h199l174-174c29-30 80-9 80 33v656c0 42-51 63-80 33z m241-211c-23 13-51 4-64-18-13-23-4-51 18-64 26-14 41-40 41-68 0-28-15-54-41-68-22-12-30-41-18-64 13-22 41-30 64-18 55 30 89 88 89 150s-34 120-89 150z" horiz-adv-x="750" />

<glyph glyph-name="volume-mute-solid" unicode="&#xe80a;" d="M420 711l-174-173h-199c-26 0-47-21-47-47v-282c0-25 21-46 47-46h199l174-174c29-30 80-9 80 33v656c0 42-51 63-80 33z m482-361l89 89c12 12 12 32 0 45l-45 44c-12 13-32 13-44 0l-89-89-90 89c-12 13-32 13-44 0l-45-44c-12-13-12-33 0-45l89-89-89-89c-12-12-12-32 0-45l45-44c12-13 32-13 44 0l90 89 89-89c12-13 32-13 44 0l45 44c12 13 12 33 0 45l-89 89z" horiz-adv-x="1000" />

<glyph glyph-name="volume-solid" unicode="&#xe80b;" d="M420 711l-174-173h-199c-26 0-47-21-47-47v-282c0-25 21-46 47-46h199l174-174c29-30 80-9 80 33v656c0 42-51 63-80 33z m518-361c0 124-63 238-168 305-22 14-51 8-65-14s-7-52 15-66c77-49 124-133 124-225s-47-176-124-225c-22-14-29-43-15-66 13-20 42-29 65-14 105 67 168 181 168 305z m-277 150c-23 13-51 4-64-18-13-23-4-51 18-64 26-14 41-40 41-68 0-28-15-54-41-68-22-12-30-41-18-64 13-22 41-30 64-18 55 30 89 88 89 150s-34 120-89 150z" horiz-adv-x="938" />

<glyph glyph-name="volume-stash-solid" unicode="&#xe80c;" d="M1238-45l-135 104c54 86 85 186 85 291 0 186-94 359-250 461-22 14-51 8-65-14-15-21-8-51 13-65 130-85 207-228 207-382 0-84-23-163-65-233l-74 58c29 53 46 112 46 175 0 123-63 239-167 305-22 14-51 7-65-14-14-22-8-51 14-65 78-49 124-135 124-226 0-41-10-81-27-117l-78 60c7 18 12 37 12 57 0 62-35 120-90 150-22 13-51 4-64-18-12-23-4-51 19-64 23-13 37-35 40-61l-155 120v201c0 42-51 63-80 33l-98-97-296 229c-14 11-33 9-44-5l-38-49c-11-14-9-34 5-44l1149-888c14-11 34-9 44 5l38 49c11 14 9 34-5 44z m-1175 536v-282c0-25 21-46 46-46h200l174-174c29-30 80-9 80 33v139l-477 369c-14-8-23-22-23-39z" horiz-adv-x="1250" />

<glyph glyph-name="volume-up-solid" unicode="&#xe80d;" d="M420 711l-174-173h-199c-26 0-47-21-47-47v-282c0-25 21-46 47-46h199l174-174c29-30 80-9 80 33v656c0 42-51 63-80 33z m456 100c-22 14-51 8-66-14-14-21-8-51 14-65 129-85 207-228 207-382 0-154-78-297-207-382-22-14-28-44-14-65 14-21 43-29 66-14 156 102 249 275 249 461s-93 359-249 461z m62-461c0 124-63 238-168 305-22 14-51 8-65-14s-7-52 15-66c77-49 124-133 124-225s-47-176-124-225c-22-14-29-43-15-66 13-20 42-29 65-14 105 67 168 181 168 305z m-277 150c-23 13-51 4-64-18-13-23-4-51 18-64 26-14 41-40 41-68 0-28-15-54-41-68-22-12-30-41-18-64 13-22 41-30 64-18 55 30 89 88 89 150s-34 120-89 150z" horiz-adv-x="1125" />

<glyph glyph-name="step-backward-solid" unicode="&#xe80e;" d="M125-64v828c0 13 11 24 23 24h94c13 0 24-11 24-24v-344l382 353c40 33 102 6 102-48v-750c0-54-62-81-102-48l-382 351v-342c0-13-11-24-24-24h-94c-12 0-23 11-23 24z" horiz-adv-x="875" />

<glyph glyph-name="step-forward-solid" unicode="&#xe80f;" d="M750 764v-828c0-13-10-24-23-24h-94c-13 0-24 11-24 24v345l-381-354c-41-33-103-6-103 48v750c0 54 62 81 103 48l381-351v342c0 13 11 24 24 24h94c13 0 23-11 23-24z" horiz-adv-x="875" />

<glyph glyph-name="stop-solid" unicode="&#xe810;" d="M781 788h-687c-52 0-94-42-94-94v-688c0-52 42-94 94-94h687c52 0 94 42 94 94v688c0 52-42 94-94 94z" horiz-adv-x="875" />
</font>
</defs>
</svg>